%YAML 1.1
%TAG !u! tag:unity3d.com,2011:
--- !u!1045 &1
EditorBuildSettings:
  m_ObjectHideFlags: 0
  serializedVersion: 2
  m_Scenes:
  - enabled: 1
    path: Assets/Scenes/MainMenu.unity
    guid: 02df43d06ad671945b362de385a828c7
  - enabled: 1
    path: Assets/Scenes/Level0.unity
    guid: 97a8d67133fb11c4a89808103f50715d
  - enabled: 1
    path: Assets/Scenes/Level1.unity
    guid: 8c9ca2cfe768ea9468ceb4a5b0c773f1
  - enabled: 1
    path: Assets/Scenes/Level2.unity
    guid: 81c95800704b76942b83a7f95b8c4ff4
  - enabled: 1
    path: Assets/Scenes/Level3.unity
    guid: 22d7fe59c312d9447b46c489251feada
  - enabled: 1
    path: Assets/Scenes/Level5.unity
    guid: f25d530a213d994458823d5ed5c1d407
  - enabled: 1
    path: Assets/Scenes/Level4.unity
    guid: aa19f0d9473c5b54aa2321a10de83b7d
  - enabled: 1
    path: Assets/Scenes/Level6.unity
    guid: 13cf1c3ad8f1c24409087228185cda9a
  - enabled: 1
    path: Assets/Scenes/Level7.unity
    guid: 1941f78fc5eb833469c135f14148739f
  - enabled: 1
    path: Assets/Scenes/Level8.unity
    guid: e4fb335d5de1b4648a34a4be43e14cd7
  - enabled: 1
    path: Assets/Scenes/Level8cont.unity
    guid: b751291f6ed6708448a5f2f4baa093ba
  - enabled: 1
    path: Assets/Scenes/Level9.unity
    guid: 2f09d94210b22e2448cb04dc38d00115
  m_configObjects: {}
